%YAML 1.1
%TAG !u! tag:unity3d.com,2011:
--- !u!1 &1564247655232511534
GameObject:
  m_ObjectHideFlags: 0
  m_CorrespondingSourceObject: {fileID: 0}
  m_PrefabInstance: {fileID: 0}
  m_PrefabAsset: {fileID: 0}
  serializedVersion: 6
  m_Component:
  - component: {fileID: 1564247655232511535}
  - component: {fileID: 1564247655232511520}
  m_Layer: 0
  m_Name: UIDirector
  m_TagString: UiDirector
  m_Icon: {fileID: 0}
  m_NavMeshLayer: 0
  m_StaticEditorFlags: 0
  m_IsActive: 1
--- !u!4 &1564247655232511535
Transform:
  m_ObjectHideFlags: 0
  m_CorrespondingSourceObject: {fileID: 0}
  m_PrefabInstance: {fileID: 0}
  m_PrefabAsset: {fileID: 0}
  m_GameObject: {fileID: 1564247655232511534}
  m_LocalRotation: {x: 0, y: 0, z: 0, w: 1}
  m_LocalPosition: {x: -0.015625, y: -0.3438862, z: -0.617295}
  m_LocalScale: {x: 1, y: 1, z: 1}
  m_Children: []
  m_Father: {fileID: 0}
  m_RootOrder: 0
  m_LocalEulerAnglesHint: {x: 0, y: 0, z: 0}
--- !u!114 &1564247655232511520
MonoBehaviour:
  m_ObjectHideFlags: 0
  m_CorrespondingSourceObject: {fileID: 0}
  m_PrefabInstance: {fileID: 0}
  m_PrefabAsset: {fileID: 0}
  m_GameObject: {fileID: 1564247655232511534}
  m_Enabled: 1
  m_EditorHideFlags: 0
  m_Script: {fileID: 11500000, guid: 8d4b360c7ee856442b31e6213a26e28f, type: 3}
  m_Name: 
  m_EditorClassIdentifier: 
  ScoreOnObject: {fileID: 5680044030855998343, guid: a11e492e375ee214c9f8d65ff610c616,
    type: 3}
  levelHud: {fileID: 0}
  gameOverPanel: {fileID: 0}
  saveItem: {fileID: 2736597767394279915, guid: d139a106017cd214695df322b3c31934,
    type: 3}
  savegamesPanel: {fileID: 0}
  createUserPanel: {fileID: 0}
  mainScreenMenu: {fileID: 0}
  userInfoPanel: {fileID: 0}
  mainscreenCanvas: {fileID: 0}
  InputField: {fileID: 0}
  userName: 
